{
    "profiles": {
        "Booking.ApiTemplate": {
            "commandName": "Project",
            "launchBrowser": true,
            "launchUrl": "swagger",
            "environmentVariables": {
                "ASPNETCORE_ENVIRONMENT": "Development"
            },
            "dotnetRunMessages": true,
            "applicationUrl": "https://localhost:7208;http://localhost:5266"
        },
        "IIS Express": {
            "commandName": "IISExpress",
            "launchBrowser": true,
            "launchUrl": "swagger",
            "environmentVariables": {
                "ASPNETCORE_ENVIRONMENT": "Development"
            }
        },
        "Docker": {
            "commandName": "Docker",
            "launchBrowser": true,
            "launchUrl": "{Scheme}://{ServiceHost}:{ServicePort}/swagger",
            "publishAllPorts": true,
            "useSSL": true
        }
    },
    "$schema": "https://json.schemastore.org/launchsettings.json",
    "iisSettings": {
        "windowsAuthentication": false,
        "anonymousAuthentication": true,
        "iisExpress": {
            "applicationUrl": "http://localhost:63604",
            "sslPort": 44390
        }
    }
}